Data wrangling
…
Exercises

Selecting the variables you want

We’ve made tons of new variables!

You don’t want to keep them all!

Luckily there’s an easy way to select the variables you want: select()!

nlsy_subset <- select(nlsy, id, income, eyesight, sex, region)
nlsy_subset

# A tibble: 1,205 × 5
      id income eyesight   sex region
   <dbl>  <dbl>    <dbl> <dbl>  <dbl>
 1     3  22390        1     2      1
 2     6  35000        2     1      1
 3     8   7227        2     2      1
 4    16  48000        3     2      1
 5    18   4510        3     1      3
 6    20  50000        2     2      1
 7    27  20000        1     2      1
 8    49  23900        1     2      1
 9    57  23289        2     2      1
10    67  35000        1     1      1
# ℹ 1,195 more rows

select() syntax

Like mutate(), the first argument is the dataset you want to select from

Then you can just list the variables you want!

Or you can list the variables you don’t want, preceded by an exclamation point (!)

select(nlsy_subset, !c(id, region))

# A tibble: 1,205 × 3
   income eyesight   sex
    <dbl>    <dbl> <dbl>
 1  22390        1     2
 2  35000        2     1
 3   7227        2     2
 4  48000        3     2
 5   4510        3     1
 6  50000        2     2
 7  20000        1     2
 8  23900        1     2
 9  23289        2     2
10  35000        1     1
# ℹ 1,195 more rows
…
everything()

where(is.factor) (or anything else)

all_of()

Notice that the variable names we used in select() weren’t in quotation marks.

Let’s say you have a vector of column names that you want. Then you can use all_of() to choose them.

cols_I_want <- c("age_bir", "nsibs", "region")
select(nlsy, all_of(cols_I_want))

# A tibble: 1,205 × 3
   age_bir nsibs region
     <dbl> <dbl>  <dbl>
 1      19     3      1
 2      30     1      1
 3      17     7      1
 4      31     3      1
 5      19     2      3
 6      30     2      1
 7      27     1      1
 8      24     6      1
 9      21     1      1
10      36     1      1
# ℹ 1,195 more rows

If you don’t want an error if they don’t exist, use any_of().

starts_with, ends_with

Variables won’t be repeated even if they meet multiple criteria

select(nlsy, starts_with("sleep"), ends_with("d"))

# A tibble: 1,205 × 3
   sleep_wkdy sleep_wknd    id
        <dbl>      <dbl> <dbl>
 1          5          7     3
 2          6          7     6
 3          7          9     8
 4          6          7    16
 5         10         10    18
 6          7          8    20
 7          8          8    27
 8          8          8    49
 9          7          8    57
10          8          8    67
# ℹ 1,195 more rows

starts_with, ends_with

Use & in between multiple criteria if they have to meet all of them

select(nlsy, starts_with("sleep") & ends_with("d"))

# A tibble: 1,205 × 1
   sleep_wknd
        <dbl>
 1          7
 2          7
 3          9
 4          7
 5         10
 6          8
 7          8
 8          8
 9          8
10          8
# ℹ 1,195 more rows

where()

You can use these helpers to rearrange variables

select(nlsy, id, where(is.factor), where(is.numeric), everything())

# A tibble: 1,205 × 24
      id eyesight_cat glasses_cat        race_eth_cat sex_cat region_cat glasses
   <dbl> <fct>        <fct>              <fct>        <fct>   <fct>        <dbl>
 1     3 Excellent    Doesn't wear glas… Non-Black, … Female  Northeast        0
 2     6 Very Good    Wears glasses/con… Non-Black, … Male    Northeast        1
 3     8 Very Good    Doesn't wear glas… Non-Black, … Female  Northeast        0
 4    16 Good         Wears glasses/con… Non-Black, … Female  Northeast        1
 5    18 Good         Doesn't wear glas… Non-Black, … Male    South            0
 6    20 Very Good    Wears glasses/con… Non-Black, … Female  Northeast        1
 7    27 Excellent    Doesn't wear glas… Non-Black, … Female  Northeast        0
 8    49 Excellent    Wears glasses/con… Non-Black, … Female  Northeast        1
 9    57 Very Good    Wears glasses/con… Non-Black, … Female  Northeast        1
10    67 Excellent    Doesn't wear glas… Non-Black, … Male    Northeast        0
# ℹ 1,195 more rows
# ℹ 17 more variables: eyesight <dbl>, sleep_wkdy <dbl>, sleep_wknd <dbl>,
#   nsibs <dbl>, samp <dbl>, race_eth <dbl>, sex <dbl>, region <dbl>,
#   income <dbl>, res_1980 <dbl>, res_2002 <dbl>, age_bir <dbl>,
#   age_bir_cent <dbl>, index <int>, total_sleep <dbl>, slp_cat_wkdy <chr>,
#   slp_wkdy_cat <chr>
…
Exercises

Your code might start to look like this

nlsy2 <- mutate(nlsy, 
                only = case_when(
                  nsibs == 0 ~ "yes",
                  .default = "no"))
nlsy3 <- select(nlsy2, id, contains("sleep"), only)
only_kids <- filter(nlsy3, only == "yes")
only_kids

# A tibble: 30 × 5
      id sleep_wkdy sleep_wknd total_sleep only 
   <dbl>      <dbl>      <dbl>       <dbl> <chr>
 1   458          7          8          NA yes  
 2   653          6          7          NA yes  
 3  1101          7          8          NA yes  
 4  1166          5          6          NA yes  
 5  2163          7          8          NA yes  
 6  2442          7          9           2 yes  
 7  2545          8          8           2 yes  
 8  3036          5          8          NA yes  
 9  3194          7          7          NA yes  
10  3538          5          5          NA yes  
# ℹ 20 more rows
…
Example from Andrew Heiss

Using pipes with functions we already know

nlsy2 <- mutate(nlsy, only = case_when(
  nsibs == 0 ~ "yes",
  .default = "no"))
nlsy3 <- select(nlsy2, 
                id, contains("sleep"), only)
only_kids <- filter(nlsy3, only == "yes")
only_kids

# A tibble: 30 × 5
      id sleep_wkdy sleep_wknd total_sleep only 
   <dbl>      <dbl>      <dbl>       <dbl> <chr>
 1   458          7          8          NA yes  
 2   653          6          7          NA yes  
 3  1101          7          8          NA yes  
 4  1166          5          6          NA yes  
 5  2163          7          8          NA yes  
 6  2442          7          9           2 yes  
 7  2545          8          8           2 yes  
 8  3036          5          8          NA yes  
 9  3194          7          7          NA yes  
10  3538          5          5          NA yes  
# ℹ 20 more rows

only_kids <- nlsy |> 
  mutate(only = case_when(
    nsibs == 0 ~ "yes",
    TRUE ~ "no")) |> 
  select(id, contains("sleep"), only) |> 
  filter(only == "yes")
only_kids

# A tibble: 30 × 5
      id sleep_wkdy sleep_wknd total_sleep only 
   <dbl>      <dbl>      <dbl>       <dbl> <chr>
 1   458          7          8          NA yes  
 2   653          6          7          NA yes  
 3  1101          7          8          NA yes  
 4  1166          5          6          NA yes  
 5  2163          7          8          NA yes  
 6  2442          7          9           2 yes  
 7  2545          8          8           2 yes  
 8  3036          5          8          NA yes  
 9  3194          7          7          NA yes  
10  3538          5          5          NA yes  
# ℹ 20 more rows
…
