Solutions to Day 3 Exercises
…
Rows: 11551 Columns: 6
── Column specification ────────────────────────────────────────────────────────
Delimiter: ","
dbl (6): id_kid, id, sex_kid, dob_kid, agebir_mom, bwt_kid

ℹ Use `spec()` to retrieve the full column specification for this data.
ℹ Specify the column types or set `show_col_types = FALSE` to quiet this message.

nlsy_kids

# A tibble: 11,551 × 6
   id_kid    id sex_kid dob_kid agebir_mom bwt_kid
    <dbl> <dbl>   <dbl>   <dbl>      <dbl>   <dbl>
 1    201     2       2    1993         34     139
 2    202     2       2    1994         35      NA
 3    301     3       2    1981         19     162
 4    302     3       2    1983         22     144
 5    303     3       2    1986         24     112
 6    401     4       1    1980         18     107
 7    403     4       2    1997         34      NA
 8    801     8       2    1976         17     119
 9    802     8       1    1979         20     107
10    803     8       2    1982         24     146
# ℹ 11,541 more rows
…
# A tibble: 3 × 5
  sex_kid min_yob max_yob mean_bwt prop_lbwt
  <fct>     <dbl>   <dbl>    <dbl>     <dbl>
1 female     1970    2011    3194.    0.109 
2 male       1972    2014    3302.    0.0968
3 <NA>       1975    1976    1233.    0.5   

nlsy_kids |> 
  distinct(id)

# A tibble: 4,943 × 1
      id
   <dbl>
 1     2
 2     3
 3     4
 4     8
 5    10
 6    12
 7    16
 8    19
 9    20
10    25
# ℹ 4,933 more rows
