Solutions: Day 4 Exercises
…
The {broom} package has a couple of other major functions: glance() and augment(). Try out each of them on your regression model. Look at the documentation for each to help you figure out what they do.

# this will output some model statistics
glance(poisson_model)

# A tibble: 1 × 8
  null.deviance df.null  logLik    AIC    BIC deviance df.residual  nobs
          <dbl>   <int>   <dbl>  <dbl>  <dbl>    <dbl>       <int> <int>
1         8022.    4695 -10744. 21509. 21573.    7309.        4686  4696

# this will add fitted/predicted values, residuals, and some other
# stats to the original dataframe
augment(poisson_model)

# A tibble: 4,696 × 12
   .rownames nsibs income `I(income^2)` region_cat age_bir .fitted .resid
   <chr>     <dbl>  <dbl>      <I<dbl>> <fct>        <dbl>   <dbl>  <dbl>
 1 2             8  20000     400000000 Northeast       34   1.04   2.51 
 2 3             3  22390     501312100 Northeast       19   1.27  -0.307
 3 6             1  35000    1225000000 Northeast       30   0.980 -1.17 
 4 8             7   7227      52229529 Northeast       17   1.55   0.991
 5 9             4  17000     289000000 Northeast       27   1.20   0.358
 6 15            1  22000     484000000 Northeast       33   1.03  -1.24 
 7 16            3  48000    2304000000 Northeast       31   0.958  0.238
 8 18            2   4510      20340100 South           19   1.64  -1.58 
 9 20            2  50000    2500000000 Northeast       30   0.983 -0.431
10 26            2  30000     900000000 Northeast       33   0.956 -0.389
# ℹ 4,686 more rows
# ℹ 4 more variables: .hat <dbl>, .sigma <dbl>, .cooksd <dbl>, .std.resid <dbl>
…
